{
    "vim.leader": "ö",
    "vim.insertModeKeyBindings": [
        {
            "before": ["k", "j"],
            "after": ["<Esc>"]
        }
    ],
    "vim.normalModeKeyBindings": [
        {
            "before": ["<leader>", "c", "c"],
            "after": ["g", "c", "c"]
        },
        {
            "before": ["<leader>", "c", "u"],
            "after": ["g", "c", "c"]
        }
    ],
    "vim.visualModeKeyBindings": [
        {
            "before": ["<leader>", "c", "c"],
            "after": ["g", "c", "c"]
        },
        {
            "before": ["<leader>", "c", "u"],
            "after": ["g", "c", "c"]
        }
    ],
    "vim.useSystemClipboard": true,
    "vim.smartcase": true,
    "[cpp]": {
        "editor.defaultFormatter": "xaver.clang-format"
    },
    "terminal.explorerKind": "external",
}